K Nearest Neighbors Regression
…
```

---
# Automatic tuning

<code class ='r hljs remark-code'>knn_mod_tune <- nearest_neighbor(<span style="background-color:pink">neighbors</span> = <span style="background-color:#ffff7f">tune()</span>) %>%<br>&nbsp;&nbsp;set_engine("kknn") %>%<br>&nbsp;&nbsp;set_mode("regression")<br><br>k_grid <- grid_regular(<span style="background-color:pink">neighbors</span>(c(1,50)), <br>&nbsp;&nbsp;&nbsp;&nbsp;&nbsp;&nbsp;&nbsp;&nbsp;&nbsp;&nbsp;&nbsp;&nbsp;&nbsp;&nbsp;&nbsp;&nbsp;&nbsp;&nbsp;&nbsp;&nbsp;&nbsp;&nbsp;&nbsp;levels = 25)<br><br>k_grid</code>

```

## # A tibble: 25 x 1
##    neighbors
##        <int>
##  1         1
##  2         3
##  3         5
##  4         7
##  5         9
##  6        11
##  7        13
##  8        15
##  9        17
## 10        19
## # ... with 15 more rows
…
---
# Tuning

```r
knn_grid_search %>% collect_metrics()
```

```
## # A tibble: 50 x 7
##    neighbors .metric .estimator  mean     n std_err .config
##        <int> <chr>   <chr>      <dbl> <int>   <dbl> <chr>  
##  1         1 rmse    standard   0.516    10  0.0510 Model01
##  2         1 rsq     standard   0.749    10  0.0322 Model01
##  3         3 rmse    standard   0.434    10  0.0379 Model02
##  4         3 rsq     standard   0.812    10  0.0215 Model02
##  5         5 rmse    standard   0.406    10  0.0346 Model03
##  6         5 rsq     standard   0.833    10  0.0196 Model03
##  7         7 rmse    standard   0.394    10  0.0329 Model04
##  8         7 rsq     standard   0.843    10  0.0187 Model04
##  9         9 rmse    standard   0.386    10  0.0316 Model05
## 10         9 rsq     standard   0.849    10  0.0178 Model05
## # ... with 40 more rows
```
…
